…
<img src="img/unnamed-chunk-3-1.png" width="100%" />

    ## 
    ## $resumen_tibble
    ## # A tibble: 32 x 3
    ##    Provincias            Sí resto
    ##    <fct>              <dbl> <dbl>
    ##  1 Azua              0.0730 0.927
    ##  2 Bahoruco          0.0540 0.946
    ##  3 Barahona          0.0668 0.933
    ##  4 Dajabón           0.0670 0.933
    ##  5 Distrito Nacional 0.280  0.720
    ##  6 Duarte            0.108  0.892
    ##  7 El Seibo          0.0706 0.929
    ##  8 Elías Piña        0.0439 0.956
    ##  9 Espaillat         0.107  0.893
    ## 10 Hato Mayor        0.0939 0.906
    ## # … with 22 more rows
    ## 
    ## $resumen_md
    ## 
    ## 
    ## |Provincias             |Sí    |resto |
    ## |:----------------------|:-----|:-----|
    ## |Azua                   |7.3%  |92.7% |
    ## |Bahoruco               |5.4%  |94.6% |
…
<img src="img/unnamed-chunk-4-1.png" width="100%" />

    ## 
    ## $resumen_tibble
    ## # A tibble: 32 x 3
    ##    Provincias           Sí resto
    ##    <fct>             <dbl> <dbl>
    ##  1 Azua              0.598 0.402
    ##  2 Bahoruco          0.540 0.460
    ##  3 Barahona          0.570 0.430
    ##  4 Dajabón           0.670 0.330
    ##  5 Distrito Nacional 0.773 0.227
    ##  6 Duarte            0.668 0.332
    ##  7 El Seibo          0.624 0.376
    ##  8 Elías Piña        0.468 0.532
    ##  9 Espaillat         0.707 0.293
    ## 10 Hato Mayor        0.682 0.318
    ## # … with 22 more rows
    ## 
    ## $resumen_md
    ## 
    ## 
    ## |Provincias             |Sí    |resto |
    ## |:----------------------|:-----|:-----|
    ## |Azua                   |59.8% |40.2% |
    ## |Bahoruco               |54.0% |46.0% |
…
